…
winter_medal_by_team %>%
  left_join(total_medal_by_team, by = "team") %>%
  mutate(proportion = n.x/n.y) %>%
  arrange(desc(proportion)) %>%
  filter(n.y >=100)
```

    ## # A tibble: 36 × 4
    ## # Groups:   team [36]
    ##    team              n.x   n.y proportion
    ##    <chr>           <int> <int>      <dbl>
    ##  1 United States-1    69   101      0.683
    ##  2 Austria           244   413      0.591
    ##  3 Czech Republic     73   134      0.545
    ##  4 Norway            443   910      0.487
    ##  5 Finland           426   876      0.486
    ##  6 Canada            575  1243      0.463
    ##  7 Czechoslovakia    158   486      0.325
    ##  8 Switzerland       183   588      0.311
    ##  9 Sweden            428  1434      0.298
    ## 10 Russia            216  1110      0.195
    ## # … with 26 more rows
